week_8_assignment
…
##Potential problem with data: Looking at the "tails," I don't see any 0s or NAs. This means that, by 1870, all of the states and territories included in this dataset were using both water wheel and steam engine power. This seems a little hard to believe in some of the more remote and dry areas out west. 

##Here is another question and potential problem with the data: how are they measuring horsepower? What is the unit that one uses to measure horsepower? The data set and accompanying sheet aren't very helpful. This is a potential problem with this dataset, because we aren't sure what amount of power the waterwheel and steam engine power outputs are based on. A quick google reveals that there isn't a straightforward answer to how horsepower is measured. We would need to conduct research into 1870s measuring to geta better idea.

##One more problem: there is not information about what types of manufacturing were happening in each state. What was being made? This might be helpful to know. 

#Which states generated the most power by water wheel?
library(tidyverse)
manufacturing %>% 
  select(YEAR, STATE, water_wheel, steam_engine) %>% 
  arrange(desc(water_wheel))

## # A tibble: 47 x 4
##     YEAR STATE         water_wheel steam_engine
##    <dbl> <chr>               <dbl>        <dbl>
##  1  1870 Pennsylvania    406821856    127976592
##  2  1870 New York        366994304    142466752
##  3  1870 Massachusetts   231677856    118051888
##  4  1870 Ohio            141923968     49066488
##  5  1870 Connecticut      95281280     38987188
##  6  1870 Illinois         94368056     31100244
##  7  1870 Missouri         80257248     31055444
##  8  1870 New Jersey       79606720     32648408
##  9  1870 Michigan         71712280     21205356
## 10  1870 Rhode Island     66557320     19354256
## #  with 37 more rows

#Which states generated the most power by steam engine?

manufacturing %>% 
  select(YEAR, STATE, water_wheel, steam_engine) %>% 
  arrange(desc(steam_engine))

## # A tibble: 47 x 4
##     YEAR STATE         water_wheel steam_engine
##    <dbl> <chr>               <dbl>        <dbl>
##  1  1870 New York        366994304    142466752
##  2  1870 Pennsylvania    406821856    127976592
##  3  1870 Massachusetts   231677856    118051888
##  4  1870 Ohio            141923968     49066488
##  5  1870 Connecticut      95281280     38987188
##  6  1870 New Jersey       79606720     32648408
##  7  1870 Illinois         94368056     31100244
##  8  1870 Missouri         80257248     31055444
##  9  1870 Michigan         71712280     21205356
## 10  1870 Rhode Island     66557320     19354256
## #  with 37 more rows
…
